{
    "Connection": {
        "client_method": "rtu",
        "client_baudrate": 19200,
        "client_parity": "N",
        "client_stopbits": 1,
        "client_bytesize": 8,
        "client_timeout": 1,
        "rack_start": 40000,
        "rack_count": 30,
        "mod1_start": 40045,
        "mod_count": 45
    },
    "Rack": {
        "Num_module": 40022,
        "Address_start": 40000,
        "Count": 30,
        "Scale": [0, 0, 0, 0, 0, 0, 0.1, 0.1, 0.1, 0.1, 0.001, 0, 0.001, 0, 0.1, 0, 0.1, 0, 1, 1, 1, 1, 1, 1, 0, 0, 1, 1, 0, 0.1],
        "Header": ["Alarm Flags", "Warning Flags", "Fault 1 Flags", "Alarm Module Position", "Warning Module Position", "Fault 1 Module Position", "Voltage", "Current", "SOC", "SOH", "Min. Cell Voltage", "Module ID of Min. Cell Voltage", "Max. Cell Voltage", "Module ID of Max. Cell Voltage", "Min. Temperature", "Module ID of Min. Temperature", "Max. Temperature",	"Module ID of Max. Temperature", "DC Charge Current Limit", "DC Discharge Current Limit", "Max. DC Charge Current Limit Per Module", "Max. DC Discharge Current Limit Per Module", "Number of Modules", "Number of Cells in Series per Module", "Fault 2 Flags", "Fault 2 Module Position", "DC Charge Power Limit", "DC Discharge Power Limit", "BMS HW Fault 2 Detail", "User SOC"],
        "Data_typess": ["INT", "INT", "INT", "INT", "INT", "INT", "INT", "S_INT", "INT", "INT", "INT", "INT", "INT", "INT", "S_INT", "INT", "S_INT", "INT", "INT", "INT", "INT", "INT", "INT", "INT", "INT", "INT", "INT", "INT", "INT", "INT"],
        "Data_type": ["BIT", "BIT", "BIT", "BIT", "BIT", "BIT", "INT", "S_INT", "INT", "INT", "INT", "BIT", "INT", "BIT", "S_INT", "BIT", "S_INT", "BIT", "INT", "INT", "INT", "INT", "INT", "INT", "BIT", "BIT", "INT", "INT", "BIT", "INT"]
    },
    "Module": {
        "Address_start": 40045,
        "Count": 45,
        "Scale": [0, 0, 0, 0, 0, 0, 0, 0.1, 0.1, 0.1, 0.1, 0.001, 0.001, 0.001, 1, 1, 0.001, 0.001, 0.001, 0.001, 0.001, 0.001, 0.001, 0.001, 0.001, 0.001, 0.001, 0.001, 0.001, 0.001, 0, 0, 0.1, 0.1, 0.1, 0, 1, 0, 0.1, 0.1, 0, 1, 1, 0, 0.1],
        "Header": ["BMS Hardware Version", "BMS Software Version", "Module Status", "Flag Alarms", "Rack Flag", "Fault 1 Flags", "Fault 2 Flags", "SOC", "SOH", "Voltage", "Current", "Minimum Cell Voltage", "Maximum Cell Voltage", "Average Cell Voltage", "DC Charge Current Limit", "DC Discharge Current Limit", "Cell 1 Voltage", "Cell 2 Voltage", "Cell 3 Voltage", "Cell 4 Voltage", "Cell 5 Voltage", "Cell 6 Voltage", "Cell 7 Voltage", "Cell 8 Voltage", "Cell 9 Voltage", "Cell 10 Voltage", "Cell 11 Voltage", "Cell 12 Voltage", "Cell 13 Voltage", "Cell 14 Voltage", "BMS Serial Number (High)", "BMS Serial Number (Low)", "Temperature 1", "Temperature 2", "Average Temperature", "Balancing Target", "Number of Cycles", "BMS Software Version Lower", "Usable capacity of module", "Remaining capacity of module", "BMS Type", "DC Charge Power Limit", "DC Discharge Power Limit", "BMS HW Fault 2", "User SOC"],
        "Data_typess": ["INT", "INT", "INT", "INT", "INT", "INT", "INT", "INT", "INT", "INT", "S_INT", "INT", "INT", "INT", "INT", "INT", "INT", "INT", "INT", "INT", "INT", "INT", "INT", "INT", "INT", "INT", "INT", "INT", "INT", "INT", "INT", "INT", "S_INT", "S_INT", "S_INT", "INT", "INT", "INT", "INT", "INT", "INT", "INT", "INT", "INT", "INT"],
        "Data_type": ["Byte", "Byte", "BIT", "BIT", "BIT", "BIT", "BIT", "INT", "INT", "INT", "S_INT", "INT", "INT", "INT", "INT", "INT", "INT", "INT", "INT", "INT", "INT", "INT", "INT", "INT", "INT", "INT", "INT", "INT", "INT", "INT", "INT", "INT", "S_INT", "S_INT", "S_INT", "BIT", "INT", "INT", "INT", "INT", "BMS_Type", "INT", "INT", "BIT", "INT"]
    },
    "BMS_Type": {
        "1": "M4863P3S1",
        "2": "M4863P3S2",
        "4": "M4863P3S4",
        "5": "M4863P3S5",
        "6": "M48126P3S6",
        "7": "M48126P3S7",
        "8": "M48126P3S8",
        "9": "M48126P3S9",
        "10": "M48126P3S10"
    },
    "Charge_setting": {
        "Max_volt": 57.4,
        "Min_volt": 48,
        "CCL": 60,
        "DCL": 60,
        "Max_SOC": 90,
        "Min_SOC": 10
    },
    "Alarm_bit_position": {
        "High_volt": 3,
        "Low_volt": 4,
        "High_charge": 5,
        "High_discharge": 6,
        "High_temp": 7,
        "Low_temp": 8
    },
    "Display_values_offset": {
        "Num_module": 22,
        "Rack_volts": 6,
        "Rack_current": 7,
        "Rack_SOC": 8
    },
    "Singed_int_conversion": 65536
}